
#define ITEM_STATIC_START_HIDDEN 1

.string item_static_old_model;

void() item_static =
{
	self.item_static_old_model = self.model;
	self.touch_onUse = item_static_OnUse;
	self.trigger_onAction = item_static_OnTriggerAction;

	if (!(self.spawnflags & ITEM_STATIC_START_HIDDEN))
	{
		item_static_Show(self);
	}
}

void(entity touchee, entity toucher) item_static_OnUse =
{
	if (touchee.message != "")
	{
		Messaging_Notify(toucher, touchee.message);
	}

	if (touchee.actions_on_touch != "")
	{
		Trigger_FireTriggers(touchee, touchee.actions_on_touch);
	}
};

void(entity e) item_static_Show =
{
	e.solid = SOLID_BSP;
	e.movetype = MOVETYPE_NONE;
	setorigin(e, e.origin);
	setmodel(e, e.item_static_old_model);
};

void(entity e) item_static_Hide =
{
	e.solid = SOLID_NOT;
	e.modelindex = 0;
	e.model = "";
};

void(entity actee, entity actor, string action) item_static_OnTriggerAction =
{
	if (action == "show")
	{
		item_static_Show(actee);
	}
	else if (action == "hide")
	{
		item_static_Hide(actee);
	}
};
