
void(entity player, string s) Messaging_Notify =
{
	s = strreplace("{quot}", "\"", s);
	s = strreplace("{br}", "\n", s);
	s = strreplace("{brc}", "{", s);

	stuffcmd(player, "cl_internal_notify \"");
	stuffcmd(player, uri_escape(s));
	stuffcmd(player, "\"\n");
};

