
.entity target_ent;
.float trigger_teleport_fade_fading;

void() trigger_teleport_fade =
{
	self.solid = SOLID_TRIGGER;
	setmodel (self, self.model);
	self.movetype = MOVETYPE_NONE;
	self.modelindex = 0;
	self.model = "";

	self.touch = trigger_teleport_fade_OnTouch;

	self.target_ent = find(world, targetname, self.target);

	if (!self.target_ent)
	{
		objerror("Could not find from_target");
	}
};

void() trigger_teleport_fade_OnTouch =
{
	if (other.classname != "player" || other.trigger_teleport_fade_fading)
	{
		return;
	}

	entity teleport_handler = spawn();
	teleport_handler.nextthink = time + 0.75;
	teleport_handler.owner = other;
	teleport_handler.target_ent = self.target_ent;
	teleport_handler.think = trigger_teleport_fade_PerformTeleport;
	other.trigger_teleport_fade_fading = TRUE;
	other.fixmove = TRUE;

	stuffcmd(other, "cl_fade_out\n");
};

void() trigger_teleport_fade_PerformTeleport =
{
	entity player = self.owner;

	setorigin(player, self.target_ent.origin + '0 0 1');
	player.angles = self.target_ent.angles;
	player.fixangle = 1;
	player.trigger_teleport_fade_fading = FALSE;
	player.fixmove = FALSE;
	player.velocity = '0 0 0';

	stuffcmd(player, "cl_fade_in\n");

	remove(self);
};
